[gd_resource type="Resource" load_steps=2 format=2]

[ext_resource path="res://Code/Game/Resources/AIDataResource.cs" type="Script" id=1]

[resource]
script = ExtResource( 1 )
VisibilityX = 5
VisibilityY = 15
HeuristicChangeMargin = 0.95
NeighbourMultiplier = 0.5
ObstaclePriority = 0.6
ObstacleDropOff = 0.9
DangerPriority = 0.4
DangerDropOff = 0.7
TargetPriority = 1.0
TargetDropOff = 0.15
TargetIdleSpeed = 350.0
AvoidanceThreshold = 0.8
TargetThreshold = 0.75
IdleSpeedGain = 1.2
AttackInaccuracy = 1.5
MaxAttackChance = 0.8
