[gd_scene load_steps=3 format=2]

[ext_resource path="res://Assets/bountycontainertext.png" type="Texture" id=1]
[ext_resource path="res://Assets/bountycontainer.png" type="Texture" id=2]

[node name="BountyTag" type="Control"]
margin_right = 128.0
margin_bottom = 96.0
rect_min_size = Vector2( 128, 96 )
size_flags_horizontal = 3
size_flags_vertical = 3
__meta__ = {
"_edit_use_anchors_": false
}

[node name="PortraitAttachment" type="Control" parent="."]
margin_left = 4.0
margin_top = 4.0
margin_right = 68.0
margin_bottom = 68.0
rect_clip_content = true
size_flags_horizontal = 3
size_flags_vertical = 3
__meta__ = {
"_edit_use_anchors_": false
}

[node name="BoundyUI" type="TextureRect" parent="."]
self_modulate = Color( 0, 0.25098, 1, 0.376471 )
margin_right = 40.0
margin_bottom = 40.0
texture = ExtResource( 2 )
__meta__ = {
"_edit_use_anchors_": false
}

[node name="TempText" type="TextureRect" parent="BoundyUI"]
self_modulate = Color( 0.870588, 0.568627, 0.211765, 1 )
margin_right = 128.0
margin_bottom = 96.0
rect_min_size = Vector2( 128, 96 )
texture = ExtResource( 1 )
__meta__ = {
"_edit_use_anchors_": false
}
